{
	"name": "zbar",
	"buildsystem": "autotools",
	"rm-configure": true,
	"build-options": {
		"config-opts": [
			"--without-imagemagick",
			"--without-gtk",
			"--without-qt",
			"--without-python",
			"--without-jpeg",
			"--enable-codes=qrcode"
		]
	},
    
    "sources": [
        {
            "type": "archive",
            "url": "https://downloads.sourceforge.net/project/zbar/zbar/0.10/zbar-0.10.tar.bz2",
            "sha256": "234efb39dbbe5cef4189cc76f37afbe3cfcfb45ae52493bfe8e191318bdbadc6"
        },
        
        {
        	"type": "patch",
        	"path": "Use-libv4l-instead-of-the-removed-Linux-v4l-kernel-API.patch"
        },
        
        {
        	"type": "patch",
        	"path": "Fix-build-with-new-autotools.patch"
        },
        
        {
        	"type": "patch",
        	"path": "Do-not-redefine-dprintf-before-importing-stdio-h.patch"
        },
        
        {
        	"type": "file",
        	"path": "autogen.sh"
        }
    ],

    "modules": [
		{
			"name": "v4l-utils",
			"buildsystem": "autotools",
			"build-options": {
				"config-opts": [
					"--with-udevdir=/app/lib/udev",
					"--disable-doxygen-doc",
					"--disable-doxygen-dot",
					"--disable-doxygen-html",
					"--disable-doxygen-ps",
					"--disable-doxygen-pdf",
					"--disable-libdvbv5",
					"--disable-v4l-utils",
					"--disable-qv4l2"
				]
			},

			"sources": [
				{
					"type": "archive",
					"url": "https://linuxtv.org/downloads/v4l-utils/v4l-utils-1.14.2.tar.bz2",
					"sha256": "e6b962c4b1253cf852c31da13fd6b5bb7cbe5aa9e182881aec55123bae680692"
				}
			],
    		
			"cleanup": [
				"*.a",
				"*.la",
				"/include",
				"/lib/pkgconfig"
			]
		}
    ],
    
	"cleanup": [
		"*.a",
		"*.la",
		"/include",
		"/share/doc"
	]
}
