{
    "name": "PySocks",
    "buildsystem": "simple",
    "build-commands": [
        "pip3 install --no-index --find-links \"file://${PWD}\" --prefix=/app PySocks"
    ],
    "sources": [
        {
            "type": "file",
            "url": "https://files.pythonhosted.org/packages/53/12/6bf1d764f128636cef7408e8156b7235b150ea31650d0260969215bb8e7d/PySocks-1.6.8.tar.gz",
            "sha256": "3fe52c55890a248676fd69dc9e3c4e811718b777834bcaab7a8125cf9deac672"
        }
    ]
}
