{
    "name": "requests",
    "buildsystem": "simple",
    "build-commands": [
        "pip3 install --no-index --find-links \"file://${PWD}\" --prefix=/app requests"
    ],
    "sources": [
        {
            "type": "file",
            "url": "https://files.pythonhosted.org/packages/4d/9c/46e950a6f4d6b4be571ddcae21e7bc846fcbb88f1de3eff0f6dd0a6be55d/certifi-2018.4.16.tar.gz",
            "sha256": "13e698f54293db9f89122b0581843a782ad0934a4fe0172d2a980ba77fc61bb7"
        },
        {
            "type": "file",
            "url": "https://files.pythonhosted.org/packages/3c/d2/dc5471622bd200db1cd9319e02e71bc655e9ea27b8e0ce65fc69de0dac15/urllib3-1.23.tar.gz",
            "sha256": "a68ac5e15e76e7e5dd2b8f94007233e01effe3e50e8daddf69acfd81cb686baf"
        },
        {
            "type": "file",
            "url": "https://files.pythonhosted.org/packages/65/c4/80f97e9c9628f3cac9b98bfca0402ede54e0563b56482e3e6e45c43c4935/idna-2.7.tar.gz",
            "sha256": "684a38a6f903c1d71d6d5fac066b58d7768af4de2b832e426ec79c30daa94a16"
        },
        {
            "type": "file",
            "url": "https://pypi.python.org/packages/fc/bb/a5768c230f9ddb03acc9ef3f0d4a3cf93462473795d18e9535498c8f929d/chardet-3.0.4.tar.gz",
            "sha256": "84ab92ed1c4d4f16916e05906b6b75a6c0fb5db821cc65e70cbd64a3e2a5eaae"
        },
        {
            "type": "file",
            "url": "https://files.pythonhosted.org/packages/54/1f/782a5734931ddf2e1494e4cd615a51ff98e1879cbe9eecbdfeaf09aa75e9/requests-2.19.1.tar.gz",
            "sha256": "ec22d826a36ed72a7358ff3fe56cbd4ba69dd7a6718ffd450ff0e9df7a47ce6a"
        }
    ]
}
